module shareforce-api

go 1.16

require (
	github.com/appleboy/gin-jwt/v2 v2.6.4
	github.com/gin-contrib/cors v1.3.1
	github.com/gin-gonic/gin v1.6.3
	github.com/go-playground/validator/v10 v10.4.1 // indirect
	github.com/go-sql-driver/mysql v1.5.0
	github.com/golang/protobuf v1.5.2 // indirect
	github.com/jinzhu/gorm v1.9.16
	github.com/jinzhu/now v1.1.2 // indirect
	github.com/json-iterator/go v1.1.10 // indirect
	github.com/leodido/go-urn v1.2.1 // indirect
	github.com/ugorji/go v1.2.5 // indirect
	golang.org/x/crypto v0.0.0-20210322153248-0c34fe9e7dc2 // indirect
	golang.org/x/sys v0.0.0-20210330210617-4fbd30eecc44 // indirect
	gopkg.in/yaml.v2 v2.4.0 // indirect
)
